com\sinosoft\cloud\cbs\uw\CodeMappingCacheInitService.class
com\sinosoft\cloud\cbs\uw\CalRiskAmntService.class
com\sinosoft\cloud\cbs\uw\CheckPackageProductService.class
com\sinosoft\cloud\cbs\uw\AmntHistory6807Service.class
com\sinosoft\cloud\cbs\uw\UWCheckService.class
com\sinosoft\cloud\cbs\uw\UpdateSecContactService.class
com\sinosoft\cloud\cbs\uw\UWRiskService.class
com\sinosoft\cloud\cbs\uw\CodeTransferService.class
