com\sinosoft\cache\dao\impl\MybatisQueryDao.class
com\sinosoft\cache\dao\impl\RedisCommonDao$1.class
com\sinosoft\cache\MemDBOper.class
com\sinosoft\cache\PubMemDBSubmit.class
com\sinosoft\cache\RedisLock.class
com\sinosoft\cache\dao\impl\RedisCommonDao.class
