com\sinosoft\lis\pubfun\SysMaxNo.class
com\sinosoft\lis\pubfun\YwxptMaxNo.class
com\sinosoft\lis\vschema\LDMaxNoSet.class
com\sinosoft\sn\generator\IGenerator.class
com\sinosoft\sn\generator\GeneratorTypeSet.class
com\sinosoft\lis\maxno\CommonSeqIDGen.class
com\sinosoft\sn\generator\ParamConsts.class
com\sinosoft\lis\maxno\DataSourceSNGenerator.class
com\sinosoft\lis\pubfun\SysMaxNoAB.class
com\sinosoft\sn\generator\impl\NumberSequenceGenerator.class
com\sinosoft\lis\maxno\PolicySNGenerator.class
com\sinosoft\sn\maxno\GenMaxNo.class
com\sinosoft\lis\db\LDMaxNoDB.class
com\sinosoft\sn\AbstractSNGenerator.class
com\sinosoft\lis\maxno\BaseListAction.class
com\sinosoft\sn\generator\impl\DateTimeGenerator.class
com\sinosoft\lis\maxno\EPolicySNGenerator.class
com\sinosoft\sn\generator\impl\FixedStringGenerator.class
com\sinosoft\lis\pubfun\SysMaxNoCommon.class
com\sinosoft\sn\SNGeneratorEngine.class
com\sinosoft\lis\pubfun\PubFun1.class
com\sinosoft\lis\vdb\LDMaxNoDBSet.class
com\sinosoft\lis\maxno\NumberUtils.class
com\sinosoft\lis\pubfun\SysMaxNoSinoShangHaiLife.class
com\sinosoft\lis\maxno\CommonSeqStrGen.class
com\sinosoft\sn\generator\impl\IDKeyGenerator.class
com\sinosoft\lis\schema\LDMaxNoSchema.class
com\sinosoft\sn\maxno\MaxNoCache.class
com\sinosoft\lis\maxno\EdorSNGenerator.class
com\sinosoft\lis\maxno\SampleSNGenerator.class
