C:\java\liannewproject\Yccd002\cloud\data-route\src\main\java\com\sinosoft\cloud\dataroute\IHashShardService.java
C:\java\liannewproject\Yccd002\cloud\data-route\src\main\java\com\sinosoft\cloud\dataroute\ADataSetSource.java
C:\java\liannewproject\Yccd002\cloud\data-route\src\main\java\com\sinosoft\cloud\dataroute\HashShardServiceImpl.java
C:\java\liannewproject\Yccd002\cloud\data-route\src\main\java\com\sinosoft\cloud\dataroute\HashRingAlgorithm.java
